…
## Bare Bones Demo

All available packages from local repository.

``` r
library(pharmapkgs)

# local snapshot, bundled with pharmapkgs
repo <- bundled_repos("ubuntu-22.04")

available.packages(repos = repo, fields = risk_fields(repo)) |>
  tibble::as_tibble()
#> # A tibble: 106 × 34
#>    Package  Version Priority Depends Imports LinkingTo Suggests Enhances License
#>    <chr>    <chr>   <chr>    <chr>   <chr>   <chr>     <chr>    <chr>    <chr>  
#>  1 colorsp… 2.1-0   <NA>     R (>= … "graph… <NA>      "datase… <NA>     <NA>   
#>  2 farver   2.1.1   <NA>     R (>= …  <NA>   <NA>      "covr, … <NA>     <NA>   
#>  3 isoband  0.2.7   <NA>     R (>= … "grid,… <NA>      "covr, … <NA>     <NA>   
#>  4 magrittr 2.0.3   <NA>     R (>= …  <NA>   <NA>      "covr, … <NA>     <NA>   
#>  5 munsell  0.5.0   <NA>     R (>= … "color… <NA>      "ggplot… <NA>     <NA>   
#>  6 pillar   1.9.0   <NA>     R (>= … "cli (… <NA>      "bit64,… <NA>     <NA>   
#>  7 pkgconf… 2.0.3   <NA>     R (>= … "utils" <NA>      "covr, … <NA>     <NA>   
#>  8 R6       2.5.1   <NA>     R (>= …  <NA>   <NA>      "testth… <NA>     <NA>   
#>  9 RColorB… 1.1-3   <NA>     R (>= …  <NA>   <NA>       <NA>    <NA>     <NA>   
#> 10 tibble   3.2.1   <NA>     R (>= … "fansi… <NA>      "bench,… <NA>     <NA>   
#> # ℹ 96 more rows
#> # ℹ 25 more variables: License_is_FOSS <chr>, License_restricts_use <chr>,
#> #   OS_type <chr>, Archs <chr>, MD5sum <chr>, NeedsCompilation <chr>,
#> #   File <chr>, NewsCurrent <chr>, HasVignettes <chr>, SizeCodebase <chr>,
#> #   HasBugReportsUrl <chr>, BugsStatus <chr>, ExportHelp <chr>,
#> #   ReverseDependencies <chr>, Downloads1Yr <chr>, Dependencies <chr>,
#> #   HasWebsite <chr>, RCmdCheck <chr>, RemoteChecks <chr>, …
```
…
